\relax 
\providecommand\hyper@newdestlabel[2]{}
\providecommand\HyperFirstAtBeginDocument{\AtBeginDocument}
\HyperFirstAtBeginDocument{\ifx\hyper@anchor\@undefined
\global\let\oldnewlabel\newlabel
\gdef\newlabel#1#2{\newlabelxx{#1}#2}
\gdef\newlabelxx#1#2#3#4#5#6{\oldnewlabel{#1}{{#2}{#3}}}
\AtEndDocument{\ifx\hyper@anchor\@undefined
\let\newlabel\oldnewlabel
\fi}
\fi}
\global\let\hyper@last\relax 
\gdef\HyperFirstAtBeginDocument#1{#1}
\providecommand\HyField@AuxAddToFields[1]{}
\providecommand\HyField@AuxAddToCoFields[2]{}
\@writefile{toc}{\contentsline {section}{\numberline {1}Introduction}{}{section.1}\protected@file@percent }
\newlabel{sec:org3f8e2cc}{{1}{}{Introduction}{section.1}{}}
\pgfsyspdfmark {pgfid3}{4217770}{12942257}
\pgfsyspdfmark {pgfid5}{12679912}{11018278}
\pgfsyspdfmark {pgfid4}{11502086}{13590586}
\pgfsyspdfmark {pgfid2}{6683383}{16135927}
\pgfsyspdfmark {pgfid1}{9037754}{11319697}
\@writefile{lof}{\contentsline {figure}{\numberline {1}{\ignorespaces \texttt  {inetd} spawns subprocesses to handle incoming requests from the internet.}}{}{figure.1}\protected@file@percent }
\newlabel{org1ff6278}{{1}{}{\texttt {inetd} spawns subprocesses to handle incoming requests from the internet}{figure.1}{}}
\@writefile{toc}{\contentsline {section}{\numberline {2}A fine-grained access control API for ports}{}{section.2}\protected@file@percent }
\newlabel{sec:org218c043}{{2}{}{A fine-grained access control API for ports}{section.2}{}}
\newlabel{org61d8aa1}{{2}{}{A fine-grained access control API for ports}{section.2}{}}
\@writefile{toc}{\contentsline {section}{\numberline {3}Service script}{}{section.3}\protected@file@percent }
\newlabel{sec:orgf8a87c5}{{3}{}{Service script}{section.3}{}}
\@writefile{toc}{\contentsline {subsection}{\numberline {3.1}Echo service}{}{subsection.3.1}\protected@file@percent }
\newlabel{sec:org2819f49}{{3.1}{}{Echo service}{subsection.3.1}{}}
\newlabel{org5d39b72}{{3.1}{}{Echo service}{subsection.3.1}{}}
\pgfsyspdfmark {pgfid8}{4250538}{44216511}
\pgfsyspdfmark {pgfid10}{11691174}{38697876}
\pgfsyspdfmark {pgfid9}{10513348}{41249751}
\pgfsyspdfmark {pgfid7}{6205398}{47519789}
\pgfsyspdfmark {pgfid6}{8559769}{41135587}
\@writefile{lof}{\contentsline {figure}{\numberline {2}{\ignorespaces The echo service is implemented with \texttt  {cat}. From the point of view of the service script, data comes from the \texttt  {/run/socket} socket.}}{}{figure.2}\protected@file@percent }
\newlabel{org9f4d05e}{{2}{}{The echo service is implemented with \texttt {cat}. From the point of view of the service script, data comes from the \texttt {/run/socket} socket}{figure.2}{}}
\@writefile{toc}{\contentsline {subsection}{\numberline {3.2}A quick-and-dirty HTTP file share}{}{subsection.3.2}\protected@file@percent }
\newlabel{sec:org9b26d23}{{3.2}{}{A quick-and-dirty HTTP file share}{subsection.3.2}{}}
\newlabel{orgf28aa7e}{{3.2}{}{A quick-and-dirty HTTP file share}{subsection.3.2}{}}
\pgfsyspdfmark {pgfid13}{10442588}{43155975}
\pgfsyspdfmark {pgfid14}{8089498}{39614267}
\pgfsyspdfmark {pgfid12}{13625447}{39614267}
\pgfsyspdfmark {pgfid16}{25471031}{43225029}
\pgfsyspdfmark {pgfid17}{23117941}{37606601}
\pgfsyspdfmark {pgfid18}{32189356}{46528307}
\pgfsyspdfmark {pgfid19}{31483083}{39122713}
\pgfsyspdfmark {pgfid20}{30796787}{35020397}
\pgfsyspdfmark {pgfid21}{36178718}{39122713}
\pgfsyspdfmark {pgfid15}{24764757}{46528307}
\pgfsyspdfmark {pgfid11}{10529422}{39614267}
\@writefile{lof}{\contentsline {figure}{\numberline {3}{\ignorespaces In the service script container, \texttt  {alice} 9p-mounts her \texttt  {/home/alice/public} directory to \texttt  {/srv/http}. \texttt  {python} then serves it on port 8000. \texttt  {socat} shuffles data back and forth from \texttt  {/run/socket/} to port 8000. Note that the container's port 8000 exists only in the container. The actual port 8000 from the machine remains untouched. The python process stays unreachable from the outside, except through \texttt  {listen}. Note also that the 9P server has read-only access to \texttt  {/home/alice/public}.}}{}{figure.3}\protected@file@percent }
\newlabel{org280bb64}{{3}{}{In the service script container, \texttt {alice} 9p-mounts her \texttt {/home/alice/public} directory to \texttt {/srv/http}. \texttt {python} then serves it on port 8000. \texttt {socat} shuffles data back and forth from \texttt {/run/socket/} to port 8000. Note that the container's port 8000 exists only in the container. The actual port 8000 from the machine remains untouched. The python process stays unreachable from the outside, except through \texttt {listen}. Note also that the 9P server has read-only access to \texttt {/home/alice/public}}{figure.3}{}}
\@writefile{toc}{\contentsline {subsection}{\numberline {3.3}To recap}{}{subsection.3.3}\protected@file@percent }
\newlabel{sec:orgb4ef965}{{3.3}{}{To recap}{subsection.3.3}{}}
\newlabel{org46cf34c}{{3.3}{}{To recap}{subsection.3.3}{}}
\@writefile{toc}{\contentsline {section}{\numberline {4}How \texttt  {listen} works}{}{section.4}\protected@file@percent }
\newlabel{sec:org0d233c8}{{4}{}{How \texttt {listen} works}{section.4}{}}
\@writefile{toc}{\contentsline {subsection}{\numberline {4.1}Configuration}{}{subsection.4.1}\protected@file@percent }
\newlabel{sec:orgfa82e36}{{4.1}{}{Configuration}{subsection.4.1}{}}
\pgfsyspdfmark {pgfid24}{4217770}{44468496}
\pgfsyspdfmark {pgfid26}{13029887}{40392624}
\pgfsyspdfmark {pgfid28}{20470523}{34873989}
\pgfsyspdfmark {pgfid27}{19292697}{37425864}
\pgfsyspdfmark {pgfid25}{13065267}{43695902}
\pgfsyspdfmark {pgfid29}{17339118}{28007930}
\pgfsyspdfmark {pgfid23}{7321904}{47662166}
\pgfsyspdfmark {pgfid22}{13074823}{36666900}
\@writefile{lof}{\contentsline {figure}{\numberline {4}{\ignorespaces \texttt  {listen}'s container prevents damage, even when the server process (here \texttt  {cat}), gets compromised.}}{}{figure.4}\protected@file@percent }
\newlabel{orged05d75}{{4}{}{\texttt {listen}'s container prevents damage, even when the server process (here \texttt {cat}), gets compromised}{figure.4}{}}
\@writefile{toc}{\contentsline {subsection}{\numberline {4.2}First security layer: almost unprivileged user \texttt  {listen}}{}{subsection.4.2}\protected@file@percent }
\newlabel{sec:org130ef9a}{{4.2}{}{First security layer: almost unprivileged user \texttt {listen}}{subsection.4.2}{}}
\newlabel{orgaa2dfee}{{4.2}{}{First security layer: almost unprivileged user \texttt {listen}}{subsection.4.2}{}}
\@writefile{toc}{\contentsline {subsection}{\numberline {4.3}Second security layer: service script containerization}{}{subsection.4.3}\protected@file@percent }
\newlabel{sec:org6e59ebb}{{4.3}{}{Second security layer: service script containerization}{subsection.4.3}{}}
\newlabel{orgf0441b0}{{4.3}{}{Second security layer: service script containerization}{subsection.4.3}{}}
\@writefile{toc}{\contentsline {subsection}{\numberline {4.4}Passing data to the unnetworked daemon}{}{subsection.4.4}\protected@file@percent }
\newlabel{sec:org9faa83b}{{4.4}{}{Passing data to the unnetworked daemon}{subsection.4.4}{}}
\@writefile{toc}{\contentsline {subsection}{\numberline {4.5}Aliases}{}{subsection.4.5}\protected@file@percent }
\newlabel{sec:orgd065875}{{4.5}{}{Aliases}{subsection.4.5}{}}
\newlabel{org5257091}{{4.5}{}{Aliases}{subsection.4.5}{}}
\@writefile{toc}{\contentsline {section}{\numberline {5}Alternatives to \texttt  {listen}}{}{section.5}\protected@file@percent }
\newlabel{sec:org90c84ba}{{5}{}{Alternatives to \texttt {listen}}{section.5}{}}
\@writefile{toc}{\contentsline {subsection}{\numberline {5.1}Plan 9's listen and Inferno's svc}{}{subsection.5.1}\protected@file@percent }
\newlabel{sec:orgf78e84e}{{5.1}{}{Plan 9's listen and Inferno's svc}{subsection.5.1}{}}
\newlabel{org94dbbd8}{{5.1}{}{Plan 9's listen and Inferno's svc}{subsection.5.1}{}}
\@writefile{toc}{\contentsline {subsection}{\numberline {5.2}(x)inetd}{}{subsection.5.2}\protected@file@percent }
\newlabel{sec:org47724d7}{{5.2}{}{(x)inetd}{subsection.5.2}{}}
\@writefile{toc}{\contentsline {subsection}{\numberline {5.3}Authbind}{}{subsection.5.3}\protected@file@percent }
\newlabel{sec:org36678af}{{5.3}{}{Authbind}{subsection.5.3}{}}
\@writefile{toc}{\contentsline {subsection}{\numberline {5.4}Systemd}{}{subsection.5.4}\protected@file@percent }
\newlabel{sec:orgde62b50}{{5.4}{}{Systemd}{subsection.5.4}{}}
\@writefile{toc}{\contentsline {section}{\numberline {6}Source code, system configuration, and existing deployments}{}{section.6}\protected@file@percent }
\newlabel{sec:orgefeff77}{{6}{}{Source code, system configuration, and existing deployments}{section.6}{}}
\@writefile{toc}{\contentsline {section}{\numberline {7}Further work and position}{}{section.7}\protected@file@percent }
\newlabel{sec:orgce93fb1}{{7}{}{Further work and position}{section.7}{}}
\@writefile{toc}{\contentsline {subsection}{\numberline {7.1}Pledge}{}{subsection.7.1}\protected@file@percent }
\newlabel{sec:org20d6db5}{{7.1}{}{Pledge}{subsection.7.1}{}}
\@writefile{toc}{\contentsline {subsection}{\numberline {7.2}Tighten the capable wrapper}{}{subsection.7.2}\protected@file@percent }
\newlabel{sec:orgc4ac9a8}{{7.2}{}{Tighten the capable wrapper}{subsection.7.2}{}}
\@writefile{toc}{\contentsline {subsection}{\numberline {7.3}Listen servers}{}{subsection.7.3}\protected@file@percent }
\newlabel{sec:org7710b88}{{7.3}{}{Listen servers}{subsection.7.3}{}}
\@writefile{toc}{\contentsline {subsection}{\numberline {7.4}Preventing resource exhaustion}{}{subsection.7.4}\protected@file@percent }
\newlabel{sec:org3ebf2a0}{{7.4}{}{Preventing resource exhaustion}{subsection.7.4}{}}
\@writefile{toc}{\contentsline {subsection}{\numberline {7.5}Down with port numbers}{}{subsection.7.5}\protected@file@percent }
\newlabel{sec:org01ce961}{{7.5}{}{Down with port numbers}{subsection.7.5}{}}
\@writefile{toc}{\contentsline {subsection}{\numberline {7.6}Capabilities and Linux namespaces do not mix well}{}{subsection.7.6}\protected@file@percent }
\newlabel{sec:orgc0d2a25}{{7.6}{}{Capabilities and Linux namespaces do not mix well}{subsection.7.6}{}}
\@writefile{toc}{\contentsline {section}{\numberline {8}Conclusion}{}{section.8}\protected@file@percent }
\newlabel{sec:org290d692}{{8}{}{Conclusion}{section.8}{}}
\@writefile{toc}{\contentsline {section}{\numberline {9}Bibliography}{}{section.9}\protected@file@percent }
\newlabel{sec:org87bcb86}{{9}{}{Bibliography}{section.9}{}}
\gdef \@abspage@last{12}
